{
    "table": {
        "row": [
            {
                "column": [
                    "Naglowek1",
                    "Naglowek2",
                    "Naglowek3"
                ]
            },
            {
                "column": [
                    "wiersz1kolumna1",
                    "wiersz1kolumna2",
                    "wiersz1kolumna3"
                ]
            },
            {
                "column": [
                    "wiersz2kolumna1",
                    "wiersz2kolumna2",
                    "wiersz2kolumna3"
                ]
            }
        ]
    }
}